100101110
000001000
000100110
010010000
000101100
000000101
001010010
000001100
011100100
000010001
000001000
100100001
000100010
100100101
001010001
001001000
000010100
001100000
011000010
010