:A+ sLs+S
:A- s-Ls+S
:A* sLs*S
:A/ sLs/S
:A% sLs%S
:Ic wS
:Oc sy
:Id WS
:Od sY
:Ih mS
:Oh sM
:END _q
:ABS s|S
:NEG s|-S
:DUP sSS
:L_NZ sK_j
:JNZ_r sFsKfj
:JUMPr sF_1Kfj
:JUMP sF_1KfJ
:DROP s_
:PUSH S
:JSiGr sF.Zfj
:Si .S
:CR _1101S
:LF _1010S

LF
"RPN CALC
+02 JSiGr
+02 JUMPr
Oc +02 NEG JUMPr
Id Id Ic Ic DROP +02 JUMPr
Id Ic Ic DROP
DUP '. A- +02 JNZ_r
DROP DROP Od END
DUP '+ A- +02 JNZ_r
DROP A+ +04 NEG JUMPr
DUP '- A- +02 JNZ_r
DROP A- +06 NEG JUMPr
DUP '* A- +02 JNZ_r
DROP A* +08 NEG JUMPr
DUP '/ A- +02 JNZ_r
DROP A/ +0a NEG JUMPr
DUP '% A- +02 JNZ_r
DROP A% +0c NEG JUMPr
DROP LF
"ERROR...
+02 JSiGr
+02 JUMPr
Oc +02 NEG JUMPr
END